…
## Plots

I am beginning to create some plots. However, it would be beneficial to
have a table displaying the number of shootings per day beforehand.

``` r
shootings_per_day <- nyc_shootings %>%
  count(date) %>%
  arrange(desc(n))

shootings_per_day
```

    ## # A tibble: 5,409 × 2
    ##    date           n
    ##    <date>     <int>
    ##  1 2020-07-05    47
    ##  2 2011-09-04    31
    ##  3 2020-07-26    29
    ##  4 2007-08-11    26
    ##  5 2006-09-04    25
    ##  6 2020-08-15    24
    ##  7 2010-07-11    23
    ##  8 2010-08-07    23
    ##  9 2007-10-06    22
    ## 10 2008-05-24    22
    ## # … with 5,399 more rows
…
Now, I would like to create a table that displays the number of murders
per day in descending order. As you may recall, the highest number of
shootings in a single day occurred on July 5, 2020. However, according
to the table below, this date ranks second in terms of the number of
murders.

``` r
nyc_shootings %>%
  filter(murder == TRUE) %>%
  group_by(date) %>%
  summarise(murders = n()) %>%
  arrange(desc(murders))
```

    ## # A tibble: 2,704 × 2
    ##    date       murders
    ##    <date>       <int>
    ##  1 2020-07-26      12
    ##  2 2020-07-05      11
    ##  3 2011-12-12      10
    ##  4 2007-10-06       9
    ##  5 2007-11-18       9
    ##  6 2010-07-11       9
    ##  7 2018-01-06       9
    ##  8 2006-09-04       8
    ##  9 2008-10-27       8
    ## 10 2010-02-22       8
    ## # … with 2,694 more rows
…
